{
  "count": 25,
  "next": "https://unity.unitedlayer.com/customer/nutanix/f60a0acc-54f5-47ba-b70d-702a7b53bfd6/vms/?page=2&page_size=10",
  "previous": null,
  "results": [
    {
      "name": "sdxdcwinjspranesh",
      "uuid": "27ed79f3-e9dd-469c-963a-38d691ae9b67",
      "cluster": 14,
      "power_state": "off",
      "host_name": null,
      "host_uuid": null,
      "ip_address": [
        "172.17.80.80"
      ],
      "cores": 8,
      "memory_capacity": "16.0 GB",
      "total_storage": "504.8 GB",
      "used_storage": "101.0 GB",
      "cpu_usage": "0.00 %",
      "memory_usage": "0.00 %",
      "controller_read_iops": "0",
      "controller_write_iops": null,
      "controller_bandwidth": null,
      "controller_avg_latency": null,
      "flash_mode": false,
      "free_storage_pct": "79.99 %",
      "memory_capacity_bytes": 17179869184.0,
      "total_storage_bytes": 542067822592.0
    },
    {
      "name": "NTNX-NTNX1-CVM",
      "uuid": "e6eab054-c24b-4b04-b913-c2d4e8988d8a",
      "cluster": 14,
      "power_state": "on",
      "host_name": "NTNX1",
      "host_uuid": "ce111f0e-2045-42ec-a081-0958492d2f21",
      "ip_address": [
        "172.17.80.171",
        "192.168.5.254",
        "192.168.5.2"
      ],
      "cores": 12,
      "memory_capacity": "20.0 GB",
      "total_storage": "0.0 bytes",
      "used_storage": "-1",
      "cpu_usage": "19.26 %",
      "memory_usage": "84.29 %",
      "controller_read_iops": "0",
      "controller_write_iops": null,
      "controller_bandwidth": null,
      "controller_avg_latency": null,
      "flash_mode": false,
      "free_storage_pct": null,
      "memory_capacity_bytes": 21474836480.0,
      "total_storage_bytes": null
    },
    {
      "name": "Deepak_BSM_Windows",
      "uuid": "42088ba2-40fa-4055-9a6b-9ece9d0d8d8d",
      "cluster": 14,
      "power_state": "off",
      "host_name": null,
      "host_uuid": null,
      "ip_address": [
        "172.17.80.209"
      ],
      "cores": 2,
      "memory_capacity": "2.0 GB",
      "total_storage": "34.8 GB",
      "used_storage": "512.0 bytes",
      "cpu_usage": "0.00 %",
      "memory_usage": "0.00 %",
      "controller_read_iops": "0",
      "controller_write_iops": null,
      "controller_bandwidth": null,
      "controller_avg_latency": null,
      "flash_mode": false,
      "free_storage_pct": "100.00 %",
      "memory_capacity_bytes": 2147483648.0,
      "total_storage_bytes": 37409165312.0
    },
    {
      "name": "sdxdcinfrasnocp",
      "uuid": "00badbe6-f053-43b6-91a2-6aeb81aadabe",
      "cluster": 14,
      "power_state": "off",
      "host_name": null,
      "host_uuid": null,
      "ip_address": [
        "172.17.80.212"
      ],
      "cores": 8,
      "memory_capacity": "32.0 GB",
      "total_storage": "121.2 GB",
      "used_storage": "120.9 GB",
      "cpu_usage": "0.00 %",
      "memory_usage": "0.00 %",
      "controller_read_iops": "0",
      "controller_write_iops": null,
      "controller_bandwidth": null,
      "controller_avg_latency": null,
      "flash_mode": false,
      "free_storage_pct": "0.27 %",
      "memory_capacity_bytes": 34359738368.0,
      "total_storage_bytes": 130137509376.0
    },
    {
      "name": "Veeam_proxy_server",
      "uuid": "4516d0f1-80ac-4adc-9dba-aa01d58540a1",
      "cluster": 14,
      "power_state": "off",
      "host_name": null,
      "host_uuid": null,
      "ip_address": [
        "172.17.80.179"
      ],
      "cores": 4,
      "memory_capacity": "8.0 GB",
      "total_storage": "55.0 GB",
      "used_storage": "16.6 GB",
      "cpu_usage": "0.00 %",
      "memory_usage": "0.00 %",
      "controller_read_iops": "0",
      "controller_write_iops": null,
      "controller_bandwidth": null,
      "controller_avg_latency": null,
      "flash_mode": false,
      "free_storage_pct": "69.89 %",
      "memory_capacity_bytes": 8589934592.0,
      "total_storage_bytes": 59023588352.0
    },
    {
      "name": "NTNX-NTNX2-CVM",
      "uuid": "7a90dd35-328c-4c51-8093-af0ae651a10b",
      "cluster": 14,
      "power_state": "on",
      "host_name": "NTNX2",
      "host_uuid": "8a32d7e5-1c95-4c4c-9eb7-7d257b35ebbb",
      "ip_address": [
        "172.17.80.172",
        "192.168.5.254",
        "192.168.5.2"
      ],
      "cores": 12,
      "memory_capacity": "20.0 GB",
      "total_storage": "0.0 bytes",
      "used_storage": "-1",
      "cpu_usage": "14.66 %",
      "memory_usage": "69.55 %",
      "controller_read_iops": "0",
      "controller_write_iops": "0",
      "controller_bandwidth": "0kBps",
      "controller_avg_latency": "0.00 ms",
      "flash_mode": false,
      "free_storage_pct": null,
      "memory_capacity_bytes": 21474836480.0,
      "total_storage_bytes": null
    },
    {
      "name": "rhel_mig1",
      "uuid": "4bbc29a2-c800-467d-811d-08bec9f18ed6",
      "cluster": 14,
      "power_state": "off",
      "host_name": null,
      "host_uuid": null,
      "ip_address": [
        "172.17.80.218"
      ],
      "cores": 4,
      "memory_capacity": "16.0 GB",
      "total_storage": "171.0 GB",
      "used_storage": "12.0 GB",
      "cpu_usage": "0.00 %",
      "memory_usage": "0.00 %",
      "controller_read_iops": "0",
      "controller_write_iops": null,
      "controller_bandwidth": null,
      "controller_avg_latency": null,
      "flash_mode": false,
      "free_storage_pct": "92.99 %",
      "memory_capacity_bytes": 17179869184.0,
      "total_storage_bytes": 183609851904.0
    },
    {
      "name": "NTNX-NTNX3-CVM",
      "uuid": "15c37355-e50c-4fa8-bc83-f397e16c07c2",
      "cluster": 14,
      "power_state": "on",
      "host_name": "NTNX3",
      "host_uuid": "218ac28f-d737-4bcd-9a76-ffe2545b4624",
      "ip_address": [
        "172.17.80.173",
        "192.168.5.254",
        "192.168.5.2"
      ],
      "cores": 12,
      "memory_capacity": "20.0 GB",
      "total_storage": "0.0 bytes",
      "used_storage": "-1",
      "cpu_usage": "19.55 %",
      "memory_usage": "66.91 %",
      "controller_read_iops": "0",
      "controller_write_iops": "0",
      "controller_bandwidth": "0kBps",
      "controller_avg_latency": "0.00 ms",
      "flash_mode": false,
      "free_storage_pct": null,
      "memory_capacity_bytes": 21474836480.0,
      "total_storage_bytes": null
    },
    {
      "name": "Linux_VM",
      "uuid": "5c5857e1-2166-4c67-bdff-4a0ba00b91ec",
      "cluster": 14,
      "power_state": "off",
      "host_name": null,
      "host_uuid": null,
      "ip_address": [
        "172.17.80.186"
      ],
      "cores": 2,
      "memory_capacity": "4.0 GB",
      "total_storage": "50.0 GB",
      "used_storage": "9.9 GB",
      "cpu_usage": "0.00 %",
      "memory_usage": "0.00 %",
      "controller_read_iops": "0",
      "controller_write_iops": null,
      "controller_bandwidth": null,
      "controller_avg_latency": null,
      "flash_mode": false,
      "free_storage_pct": "80.15 %",
      "memory_capacity_bytes": 4294967296.0,
      "total_storage_bytes": 53687091200.0
    },
    {
      "name": "pranesh_js",
      "uuid": "76631a0d-1aad-497b-aa8a-52fbe9b5b672",
      "cluster": 14,
      "power_state": "on",
      "host_name": "NTNX1",
      "host_uuid": "ce111f0e-2045-42ec-a081-0958492d2f21",
      "ip_address": [
        "172.17.80.10"
      ],
      "cores": 8,
      "memory_capacity": "16.0 GB",
      "total_storage": "500.0 GB",
      "used_storage": "246.9 GB",
      "cpu_usage": "4.77 %",
      "memory_usage": "72.03 %",
      "controller_read_iops": "0",
      "controller_write_iops": null,
      "controller_bandwidth": null,
      "controller_avg_latency": null,
      "flash_mode": false,
      "free_storage_pct": "50.62 %",
      "memory_capacity_bytes": 17179869184.0,
      "total_storage_bytes": 536870912000.0
    }
  ]
}