{
    "count": 12,
    "next": "http://10.192.11.207:8000/apm/monitoring/applist/?app_id=7&page=2&page_size=10",
    "previous": null,
    "results": [
        {
            "id": 58,
            "name": "currency",
            "uuid": "e9ac024d-9505-4af9-8307-0fdcd46bc2f3",
            "hostname": "10.192.25.24",
            "latency": "0ms",
            "throughput": "0.00rps",
            "device_id": 37333,
            "content_type": 325,
            "parent_app": 7,
            "customer": 417,
            "type_of_app": "WEB",
            "parent_app_availability": null,
            "parent_app_status_code": null
        },
        {
            "id": 62,
            "name": "payment",
            "uuid": "b939cfc1-854f-4c70-ad63-35da8319e23d",
            "hostname": "10.192.25.24",
            "latency": "0ms",
            "throughput": "2.64rps",
            "device_id": 37333,
            "content_type": 325,
            "parent_app": 7,
            "customer": 417,
            "type_of_app": "WEB",
            "parent_app_availability": null,
            "parent_app_status_code": null
        },
        {
            "id": 54,
            "name": "accounting",
            "uuid": "aebd608d-84c4-4322-ac0b-bf7c102bfc02",
            "hostname": "10.192.25.24",
            "latency": null,
            "throughput": null,
            "device_id": 37333,
            "content_type": 325,
            "parent_app": 7,
            "customer": 417,
            "type_of_app": "WEB",
            "parent_app_availability": null,
            "parent_app_status_code": null
        },
        {
            "id": 65,
            "name": "shipping",
            "uuid": "e334bae4-491d-45de-b79a-b662aea29709",
            "hostname": "10.192.25.24",
            "latency": "0ms",
            "throughput": "2.66rps",
            "device_id": 37333,
            "content_type": 325,
            "parent_app": 7,
            "customer": 417,
            "type_of_app": "WEB",
            "parent_app_availability": null,
            "parent_app_status_code": null
        },
        {
            "id": 57,
            "name": "checkout",
            "uuid": "8f3f2bcd-ca77-42be-87af-e1f68bd5aa71",
            "hostname": "10.192.25.24",
            "latency": "0ms",
            "throughput": "0.00rps",
            "device_id": 37333,
            "content_type": 325,
            "parent_app": 7,
            "customer": 417,
            "type_of_app": "WEB",
            "parent_app_availability": null,
            "parent_app_status_code": null
        },
        {
            "id": 59,
            "name": "fraud-detection",
            "uuid": "9d7baa9f-645e-4b84-80e4-8ff96667e946",
            "hostname": "10.192.25.24",
            "latency": "0ms",
            "throughput": "0.00rps",
            "device_id": 37333,
            "content_type": 325,
            "parent_app": 7,
            "customer": 417,
            "type_of_app": "WEB",
            "parent_app_availability": null,
            "parent_app_status_code": null
        },
        {
            "id": 61,
            "name": "load-generator",
            "uuid": "0c0ae1a1-f298-4466-87e9-d8b6b84fb5eb",
            "hostname": "10.192.25.24",
            "latency": "0ms",
            "throughput": "1.55rps",
            "device_id": 37333,
            "content_type": 325,
            "parent_app": 7,
            "customer": 417,
            "type_of_app": "WEB",
            "parent_app_availability": null,
            "parent_app_status_code": null
        },
        {
            "id": 60,
            "name": "kafka",
            "uuid": "2f6f14e0-3275-4232-b56d-aec9d16177b1",
            "hostname": "10.192.25.24",
            "latency": null,
            "throughput": null,
            "device_id": 37333,
            "content_type": 325,
            "parent_app": 7,
            "customer": 417,
            "type_of_app": "WEB",
            "parent_app_availability": null,
            "parent_app_status_code": null
        },
        {
            "id": 63,
            "name": "product-catalog",
            "uuid": "3e1ea65b-7298-4975-ad71-2cfc522e2528",
            "hostname": "10.192.25.24",
            "latency": "0ms",
            "throughput": "1.21rps",
            "device_id": 37333,
            "content_type": 325,
            "parent_app": 7,
            "customer": 417,
            "type_of_app": "WEB",
            "parent_app_availability": null,
            "parent_app_status_code": null
        },
        {
            "id": 64,
            "name": "recommendation",
            "uuid": "7421049b-ae69-4887-947d-e2e4a76c19d3",
            "hostname": "10.192.25.24",
            "latency": "0ms",
            "throughput": "0.32rps",
            "device_id": 37333,
            "content_type": 325,
            "parent_app": 7,
            "customer": 417,
            "type_of_app": "WEB",
            "parent_app_availability": null,
            "parent_app_status_code": null
        }
    ],
    "avg_throughput": "0.70 rps",
    "avg_latency": "0.00 ms",
    "avg_availability": "0.00 %"
}