{
  "count": 23,
  "next": "http://10.192.11.207:8000/chatbot/history/query/?page=2&page_size=10",
  "previous": null,
  "results": [
    {
      "id": 506,
      "user": "UnityDemo",
      "query": "How many hypervisors are there in my organization?",
      "module": "Unity Cloud",
      "tokens": 8883,
      "response_time_ms": 3274,
      "user_reaction": "average",
      "is_successful": true
    },
    {
      "id": 505,
      "user": "UnityDemo",
      "query": "Give me a list of my AWS services.",
      "module": "Unity Cloud",
      "tokens": 8878,
      "response_time_ms": 2492,
      "user_reaction": "average",
      "is_successful": true
    },
    {
      "id": 504,
      "user": "UnityDemo",
      "query": "Give me a list of my AWS services.",
      "module": "Unity Cloud",
      "tokens": 8878,
      "response_time_ms": 1869,
      "user_reaction": "average",
      "is_successful": true
    },
    {
      "id": 503,
      "user": "UnityDemo",
      "query": "How many switches are there in my organization?",
      "module": "Unity Cloud",
      "tokens": 8878,
      "response_time_ms": 1304,
      "user_reaction": "average",
      "is_successful": true
    },
    {
      "id": 502,
      "user": "UnityDemo",
      "query": "How many hypervisors are there in my organization?",
      "module": "Unity Cloud",
      "tokens": 8883,
      "response_time_ms": 1814,
      "user_reaction": "average",
      "is_successful": true
    },
    {
      "id": 501,
      "user": "UnityDemo",
      "query": "Give me a list of my Azure services.",
      "module": "Unity Cloud",
      "tokens": 8877,
      "response_time_ms": 2891,
      "user_reaction": "average",
      "is_successful": true
    },
    {
      "id": 500,
      "user": "UnityDemo",
      "query": "How many public clouds are available in my organization?",
      "module": "Unity Cloud",
      "tokens": 8877,
      "response_time_ms": 2167,
      "user_reaction": "average",
      "is_successful": true
    },
    {
      "id": 288,
      "user": "UnityDemo",
      "query": "Cost overview",
      "module": "Cost Analysis",
      "tokens": 6348,
      "response_time_ms": 1021,
      "user_reaction": "average",
      "is_successful": false
    },
    {
      "id": 287,
      "user": "UnityDemo",
      "query": "Show me cost overview",
      "module": "Cost Analysis",
      "tokens": 6349,
      "response_time_ms": 956,
      "user_reaction": "average",
      "is_successful": false
    },
    {
      "id": 89,
      "user": "UnityDemo",
      "query": "private",
      "module": "dashboard",
      "tokens": 2015,
      "response_time_ms": 1023,
      "user_reaction": "average",
      "is_successful": false
    }
  ]
}