{
  "count": 18,
  "next": "http://10.192.11.207:8000/apm/business_summary/top_business_events/?app_id=7&page=2&page_size=10",
  "previous": null,
  "results": [
    {
      "id": 2342664,
      "uuid": "907e8da4-24c9-4e85-b28c-33366c2104b0",
      "device_name": "alpha-collector-MTPdemo1_New01",
      "device_type": "vmware",
      "ip_address": "10.192.25.24",
      "description": "Convert conversion successful",
      "event_datetime": "2025-12-10T23:08:39.947210-08:00",
      "severity": "Information",
      "status": "Open",
      "is_acknowledged": false,
      "source": "Unity",
      "source_account": "Unity",
      "recovered_time": null,
      "duration": "125d 30m 2s",
      "affected_component": null,
      "affected_component_type": null,
      "affected_component_name": null,
      "environment": null,
      "application_name": "currency",
      "event_metric": null,
      "acknowledged_by": "",
      "acknowledged_time": null,
      "acknowledged_comment": null,
      "custom_data": null
    },
    {
      "id": 2342621,
      "uuid": "800be89f-4917-472b-abc2-45012d667091",
      "device_name": "alpha-collector-MTPdemo1_New01",
      "device_type": "vmware",
      "ip_address": "10.192.25.24",
      "description": "Convert conversion successful",
      "event_datetime": "2025-12-10T22:58:32.943481-08:00",
      "severity": "Information",
      "status": "Open",
      "is_acknowledged": false,
      "source": "Unity",
      "source_account": "Unity",
      "recovered_time": null,
      "duration": "125d 40m 9s",
      "affected_component": null,
      "affected_component_type": null,
      "affected_component_name": null,
      "environment": null,
      "application_name": "currency",
      "event_metric": null,
      "acknowledged_by": "",
      "acknowledged_time": null,
      "acknowledged_comment": null,
      "custom_data": null
    },
    {
      "id": 2342698,
      "uuid": "61946eb9-dd03-426c-b836-41811145cf27",
      "device_name": "alpha-collector-MTPdemo1_New01",
      "device_type": "vmware",
      "ip_address": "10.192.25.24",
      "description": "Transaction complete.",
      "event_datetime": "2025-12-10T23:12:25.656325-08:00",
      "severity": "Information",
      "status": "Open",
      "is_acknowledged": false,
      "source": "Unity",
      "source_account": "Unity",
      "recovered_time": null,
      "duration": "125d 26m 16s",
      "affected_component": null,
      "affected_component_type": null,
      "affected_component_name": null,
      "environment": null,
      "application_name": "payment",
      "event_metric": null,
      "acknowledged_by": "",
      "acknowledged_time": null,
      "acknowledged_comment": null,
      "custom_data": null
    },
    {
      "id": 2342640,
      "uuid": "837dd9a1-5245-4189-a69f-c929a09e9a80",
      "device_name": "alpha-collector-MTPdemo1_New01",
      "device_type": "vmware",
      "ip_address": "10.192.25.24",
      "description": "Transaction complete.",
      "event_datetime": "2025-12-10T23:01:28.517416-08:00",
      "severity": "Information",
      "status": "Open",
      "is_acknowledged": false,
      "source": "Unity",
      "source_account": "Unity",
      "recovered_time": null,
      "duration": "125d 37m 14s",
      "affected_component": null,
      "affected_component_type": null,
      "affected_component_name": null,
      "environment": null,
      "application_name": "payment",
      "event_metric": null,
      "acknowledged_by": "",
      "acknowledged_time": null,
      "acknowledged_comment": null,
      "custom_data": null
    },
    {
      "id": 2342762,
      "uuid": "1843e546-14c7-49d1-b62e-155dfa1409cb",
      "device_name": "alpha-collector-MTPdemo1_New01",
      "device_type": "vmware",
      "ip_address": "10.192.25.24",
      "description": "Tracking ID Created",
      "event_datetime": "2025-12-10T23:25:01.022881-08:00",
      "severity": "Information",
      "status": "Open",
      "is_acknowledged": false,
      "source": "Unity",
      "source_account": "Unity",
      "recovered_time": null,
      "duration": "125d 13m 41s",
      "affected_component": null,
      "affected_component_type": null,
      "affected_component_name": null,
      "environment": null,
      "application_name": "shipping",
      "event_metric": null,
      "acknowledged_by": "",
      "acknowledged_time": null,
      "acknowledged_comment": null,
      "custom_data": null
    },
    {
      "id": 2342763,
      "uuid": "62050b51-812b-4ff9-90ea-46b1cfbb2cd5",
      "device_name": "alpha-collector-MTPdemo1_New01",
      "device_type": "vmware",
      "ip_address": "10.192.25.24",
      "description": "Tracking ID Created",
      "event_datetime": "2025-12-10T23:25:00.806210-08:00",
      "severity": "Information",
      "status": "Open",
      "is_acknowledged": false,
      "source": "Unity",
      "source_account": "Unity",
      "recovered_time": null,
      "duration": "125d 13m 41s",
      "affected_component": null,
      "affected_component_type": null,
      "affected_component_name": null,
      "environment": null,
      "application_name": "shipping",
      "event_metric": null,
      "acknowledged_by": "",
      "acknowledged_time": null,
      "acknowledged_comment": null,
      "custom_data": null
    },
    {
      "id": 2342764,
      "uuid": "3eddb2ce-ce44-450e-8dc9-f0928d81a175",
      "device_name": "alpha-collector-MTPdemo1_New01",
      "device_type": "vmware",
      "ip_address": "10.192.25.24",
      "description": "order placed",
      "event_datetime": "2025-12-10T23:26:22.843716-08:00",
      "severity": "Information",
      "status": "Open",
      "is_acknowledged": false,
      "source": "Unity",
      "source_account": "Unity",
      "recovered_time": null,
      "duration": "125d 12m 19s",
      "affected_component": null,
      "affected_component_type": null,
      "affected_component_name": null,
      "environment": null,
      "application_name": "checkout",
      "event_metric": null,
      "acknowledged_by": "",
      "acknowledged_time": null,
      "acknowledged_comment": null,
      "custom_data": null
    },
    {
      "id": 2342719,
      "uuid": "f7ea5958-7702-4688-8342-32b6ababe771",
      "device_name": "alpha-collector-MTPdemo1_New01",
      "device_type": "vmware",
      "ip_address": "10.192.25.24",
      "description": "order placed",
      "event_datetime": "2025-12-10T23:16:37.744238-08:00",
      "severity": "Information",
      "status": "Open",
      "is_acknowledged": false,
      "source": "Unity",
      "source_account": "Unity",
      "recovered_time": null,
      "duration": "125d 22m 4s",
      "affected_component": null,
      "affected_component_type": null,
      "affected_component_name": null,
      "environment": null,
      "application_name": "checkout",
      "event_metric": null,
      "acknowledged_by": "",
      "acknowledged_time": null,
      "acknowledged_comment": null,
      "custom_data": null
    },
    {
      "id": 2342665,
      "uuid": "6025ec76-1811-438c-aa64-46e9f3cb4223",
      "device_name": "alpha-collector-MTPdemo1_New01",
      "device_type": "vmware",
      "ip_address": "10.192.25.24",
      "description": "Consumed record with orderId: 27a48d85-d660-11f0-b174-5a443ce2a044, and updated total count to: 6203",
      "event_datetime": "2025-12-10T23:08:41.764056-08:00",
      "severity": "Information",
      "status": "Open",
      "is_acknowledged": false,
      "source": "Unity",
      "source_account": "Unity",
      "recovered_time": null,
      "duration": "125d 30m ",
      "affected_component": null,
      "affected_component_type": null,
      "affected_component_name": null,
      "environment": null,
      "application_name": "fraud-detection",
      "event_metric": null,
      "acknowledged_by": "",
      "acknowledged_time": null,
      "acknowledged_comment": null,
      "custom_data": null
    },
    {
      "id": 2342622,
      "uuid": "c59d0376-efae-450a-97bd-fa23118da521",
      "device_name": "alpha-collector-MTPdemo1_New01",
      "device_type": "vmware",
      "ip_address": "10.192.25.24",
      "description": "Consumed record with orderId: b3d030f6-d65e-11f0-b174-5a443ce2a044, and updated total count to: 6184",
      "event_datetime": "2025-12-10T22:58:37.218224-08:00",
      "severity": "Information",
      "status": "Open",
      "is_acknowledged": false,
      "source": "Unity",
      "source_account": "Unity",
      "recovered_time": null,
      "duration": "125d 40m 5s",
      "affected_component": null,
      "affected_component_type": null,
      "affected_component_name": null,
      "environment": null,
      "application_name": "fraud-detection",
      "event_metric": null,
      "acknowledged_by": "",
      "acknowledged_time": null,
      "acknowledged_comment": null,
      "custom_data": null
    }
  ]
}