{
  "count": 727,
  "next": "http://play.unityone.ai/customer/integration/azure/accounts/2d5d48db-9da3-4085-b172-4cf2fa31e592/schedule_history/?page=2&page_size=10",
  "previous": null,
  "results": [
    {
      "status": "FAILURE",
      "started_at": "2026-01-02T15:22:44.951483+05:30",
      "completed_at": "2026-01-02T15:22:46.146256+05:30",
      "duration": "1s",
      "executed_by": "player-admin@unityone.ai"
    },
    {
      "status": "FAILURE",
      "started_at": "2025-12-08T17:14:59.206652+05:30",
      "completed_at": "2025-12-08T17:14:59.784262+05:30",
      "duration": "",
      "executed_by": "player-admin@unityone.ai"
    },
    {
      "status": "FAILURE",
      "started_at": "2025-10-15T19:58:33.810651+05:30",
      "completed_at": "2025-10-15T19:59:00.168719+05:30",
      "duration": "26s",
      "executed_by": "player-admin@unityone.ai"
    },
    {
      "status": "FAILURE",
      "started_at": "2025-10-14T18:43:36.697716+05:30",
      "completed_at": "2025-10-14T18:44:01.160424+05:30",
      "duration": "24s",
      "executed_by": "player-admin@unityone.ai"
    },
    {
      "status": "FAILURE",
      "started_at": "2025-10-14T15:22:57.659811+05:30",
      "completed_at": "2025-10-14T15:23:20.935874+05:30",
      "duration": "23s",
      "executed_by": "player-admin@unityone.ai"
    },
    {
      "status": "FAILURE",
      "started_at": "2025-10-13T20:02:47.265486+05:30",
      "completed_at": "2025-10-13T20:03:18.561136+05:30",
      "duration": "31s",
      "executed_by": "player-admin@unityone.ai"
    },
    {
      "status": "FAILURE",
      "started_at": "2025-10-13T20:02:14.746139+05:30",
      "completed_at": "2025-10-13T20:02:40.291764+05:30",
      "duration": "25s",
      "executed_by": "player-admin@unityone.ai"
    },
    {
      "status": "FAILURE",
      "started_at": "2025-10-13T19:58:44.923388+05:30",
      "completed_at": "2025-10-13T19:59:17.632806+05:30",
      "duration": "32s",
      "executed_by": "player-admin@unityone.ai"
    },
    {
      "status": "FAILURE",
      "started_at": "2025-10-13T11:56:11.541693+05:30",
      "completed_at": "2025-10-13T11:56:36.724658+05:30",
      "duration": "25s",
      "executed_by": "player-admin@unityone.ai"
    },
    {
      "status": "FAILURE",
      "started_at": "2025-10-13T11:53:49.993531+05:30",
      "completed_at": "2025-10-13T11:54:13.878040+05:30",
      "duration": "23s",
      "executed_by": "player-admin@unityone.ai"
    }
  ]
}